[
   {
      "constant":true,
      "inputs":[

      ],
      "name":"name",
      "outputs":[
         {
            "name":"",
            "type":"string"
         }
      ],
      "payable":false,
      "stateMutability":"view",
      "type":"function"
   },
   {
      "constant":true,
      "inputs":[

      ],
      "name":"decimals",
      "outputs":[
         {
            "name":"",
            "type":"uint8"
         }
      ],
      "payable":false,
      "stateMutability":"view",
      "type":"function"
   },
   {
      "constant":true,
      "inputs":[

      ],
      "name":"symbol",
      "outputs":[
         {
            "name":"",
            "type":"string"
         }
      ],
      "payable":false,
      "stateMutability":"view",
      "type":"function"
   },
   {
      "inputs":[

      ],
      "payable":false,
      "stateMutability":"nonpayable",
      "type":"constructor"
   },
   {
      "anonymous":false,
      "inputs":[
         {
            "indexed":true,
            "name":"bucketId",
            "type":"uint256"
         },
         {
            "indexed":false,
            "name":"tokensBurned",
            "type":"uint256"
         },
         {
            "indexed":false,
            "name":"ethereumShared",
            "type":"uint256"
         }
      ],
      "name":"onBucketPayout",
      "type":"event"
   },
   {
      "anonymous":false,
      "inputs":[
         {
            "indexed":true,
            "name":"depositAddress",
            "type":"address"
         },
         {
            "indexed":false,
            "name":"incomingEthereum",
            "type":"uint256"
         },
         {
            "indexed":false,
            "name":"tokensMinted",
            "type":"uint256"
         }
      ],
      "name":"onMemberTokenPurchase",
      "type":"event"
   },
   {
      "anonymous":false,
      "inputs":[
         {
            "indexed":true,
            "name":"fromAddress",
            "type":"address"
         },
         {
            "indexed":true,
            "name":"bucketId",
            "type":"uint256"
         },
         {
            "indexed":false,
            "name":"incomingEthereum",
            "type":"uint256"
         },
         {
            "indexed":false,
            "name":"tokensMinted",
            "type":"uint256"
         }
      ],
      "name":"onBucketTokenPurchase",
      "type":"event"
   },
   {
      "anonymous":false,
      "inputs":[
         {
            "indexed":true,
            "name":"customerAddress",
            "type":"address"
         },
         {
            "indexed":false,
            "name":"tokensBurned",
            "type":"uint256"
         },
         {
            "indexed":false,
            "name":"ethereumEarned",
            "type":"uint256"
         }
      ],
      "name":"onTokenSell",
      "type":"event"
   },
   {
      "anonymous":false,
      "inputs":[
         {
            "indexed":true,
            "name":"customerAddress",
            "type":"address"
         },
         {
            "indexed":false,
            "name":"ethereumReinvested",
            "type":"uint256"
         },
         {
            "indexed":false,
            "name":"tokensMinted",
            "type":"uint256"
         }
      ],
      "name":"onReinvestment",
      "type":"event"
   },
   {
      "anonymous":false,
      "inputs":[
         {
            "indexed":true,
            "name":"bucketId",
            "type":"uint256"
         },
         {
            "indexed":false,
            "name":"ethereumReinvested",
            "type":"uint256"
         },
         {
            "indexed":false,
            "name":"tokensMinted",
            "type":"uint256"
         }
      ],
      "name":"onBucketReinvestment",
      "type":"event"
   },
   {
      "anonymous":false,
      "inputs":[
         {
            "indexed":true,
            "name":"customerAddress",
            "type":"address"
         },
         {
            "indexed":false,
            "name":"ethereumWithdrawn",
            "type":"uint256"
         }
      ],
      "name":"onWithdraw",
      "type":"event"
   },
   {
      "anonymous":false,
      "inputs":[
         {
            "indexed":true,
            "name":"from",
            "type":"address"
         },
         {
            "indexed":true,
            "name":"to",
            "type":"address"
         },
         {
            "indexed":false,
            "name":"tokens",
            "type":"uint256"
         }
      ],
      "name":"Transfer",
      "type":"event"
   },
   {
      "anonymous":false,
      "inputs":[
         {
            "indexed":true,
            "name":"fromBucket",
            "type":"uint256"
         },
         {
            "indexed":true,
            "name":"toBucket",
            "type":"uint256"
         },
         {
            "indexed":false,
            "name":"tokens",
            "type":"uint256"
         }
      ],
      "name":"TransferBucket",
      "type":"event"
   },
   {
      "constant":false,
      "inputs":[
         {
            "name":"_usdEthPrice",
            "type":"uint256"
         },
         {
            "name":"_usdEthDecimals",
            "type":"uint256"
         },
         {
            "name":"_usdPriceNonce",
            "type":"uint256"
         },
         {
            "name":"_signature",
            "type":"bytes"
         }
      ],
      "name":"memberDepositEther",
      "outputs":[

      ],
      "payable":true,
      "stateMutability":"payable",
      "type":"function"
   },
   {
      "constant":false,
      "inputs":[
         {
            "name":"_toAccount",
            "type":"address"
         }
      ],
      "name":"toAccountDepositEther",
      "outputs":[

      ],
      "payable":true,
      "stateMutability":"payable",
      "type":"function"
   },
   {
      "constant":false,
      "inputs":[
         {
            "name":"_bucketId",
            "type":"uint256"
         },
         {
            "name":"_usdEthPrice",
            "type":"uint256"
         },
         {
            "name":"_usdEthDecimals",
            "type":"uint256"
         },
         {
            "name":"_usdPriceNonce",
            "type":"uint256"
         },
         {
            "name":"_signature",
            "type":"bytes"
         }
      ],
      "name":"bucketDepositEther",
      "outputs":[

      ],
      "payable":true,
      "stateMutability":"payable",
      "type":"function"
   },
   {
      "constant":false,
      "inputs":[
         {
            "name":"_usdEthPrice",
            "type":"uint256"
         },
         {
            "name":"_usdEthDecimals",
            "type":"uint256"
         },
         {
            "name":"_usdPriceNonce",
            "type":"uint256"
         },
         {
            "name":"_signature",
            "type":"bytes"
         }
      ],
      "name":"donateEther",
      "outputs":[
         {
            "name":"",
            "type":"uint256"
         }
      ],
      "payable":true,
      "stateMutability":"payable",
      "type":"function"
   },
   {
      "constant":false,
      "inputs":[

      ],
      "name":"reinvest",
      "outputs":[

      ],
      "payable":false,
      "stateMutability":"nonpayable",
      "type":"function"
   },
   {
      "constant":false,
      "inputs":[

      ],
      "name":"exit",
      "outputs":[

      ],
      "payable":false,
      "stateMutability":"nonpayable",
      "type":"function"
   },
   {
      "constant":false,
      "inputs":[

      ],
      "name":"withdraw",
      "outputs":[

      ],
      "payable":false,
      "stateMutability":"nonpayable",
      "type":"function"
   },
   {
      "constant":false,
      "inputs":[
         {
            "name":"_amountOfTokens",
            "type":"uint256"
         }
      ],
      "name":"sell",
      "outputs":[

      ],
      "payable":false,
      "stateMutability":"nonpayable",
      "type":"function"
   },
   {
      "constant":false,
      "inputs":[
         {
            "name":"_toAddress",
            "type":"address"
         },
         {
            "name":"_amountOfTokens",
            "type":"uint256"
         }
      ],
      "name":"transfer",
      "outputs":[
         {
            "name":"",
            "type":"bool"
         }
      ],
      "payable":false,
      "stateMutability":"nonpayable",
      "type":"function"
   },
   {
      "constant":false,
      "inputs":[
         {
            "name":"_name",
            "type":"string"
         }
      ],
      "name":"setName",
      "outputs":[

      ],
      "payable":false,
      "stateMutability":"nonpayable",
      "type":"function"
   },
   {
      "constant":false,
      "inputs":[
         {
            "name":"_symbol",
            "type":"string"
         }
      ],
      "name":"setSymbol",
      "outputs":[

      ],
      "payable":false,
      "stateMutability":"nonpayable",
      "type":"function"
   },
   {
      "constant":false,
      "inputs":[
         {
            "name":"_oracle",
            "type":"address"
         }
      ],
      "name":"setPriceOracle",
      "outputs":[

      ],
      "payable":false,
      "stateMutability":"nonpayable",
      "type":"function"
   },
   {
      "constant":false,
      "inputs":[
         {
            "name":"_devAddress",
            "type":"address"
         }
      ],
      "name":"setDev1Address",
      "outputs":[

      ],
      "payable":false,
      "stateMutability":"nonpayable",
      "type":"function"
   },
   {
      "constant":false,
      "inputs":[
         {
            "name":"_devAddress",
            "type":"address"
         }
      ],
      "name":"setDev2Address",
      "outputs":[

      ],
      "payable":false,
      "stateMutability":"nonpayable",
      "type":"function"
   },
   {
      "constant":false,
      "inputs":[
         {
            "name":"_devFee",
            "type":"uint8"
         }
      ],
      "name":"setDevFee",
      "outputs":[

      ],
      "payable":false,
      "stateMutability":"nonpayable",
      "type":"function"
   },
   {
      "constant":false,
      "inputs":[
         {
            "name":"_numMinutes",
            "type":"uint256"
         }
      ],
      "name":"setMutexWaitMinutes",
      "outputs":[

      ],
      "payable":false,
      "stateMutability":"nonpayable",
      "type":"function"
   },
   {
      "constant":false,
      "inputs":[
         {
            "name":"_usdEthPrice",
            "type":"uint256"
         },
         {
            "name":"_usdEthDecimals",
            "type":"uint256"
         },
         {
            "name":"_usdPriceNonce",
            "type":"uint256"
         },
         {
            "name":"_signature",
            "type":"bytes"
         }
      ],
      "name":"setEthPrice",
      "outputs":[

      ],
      "payable":false,
      "stateMutability":"nonpayable",
      "type":"function"
   },
   {
      "constant":true,
      "inputs":[

      ],
      "name":"getMutexWaitMinutes",
      "outputs":[
         {
            "name":"",
            "type":"uint256"
         }
      ],
      "payable":false,
      "stateMutability":"view",
      "type":"function"
   },
   {
      "constant":true,
      "inputs":[
         {
            "name":"_memberAddress",
            "type":"address"
         }
      ],
      "name":"getMutexRemainingTime",
      "outputs":[
         {
            "name":"",
            "type":"uint256"
         }
      ],
      "payable":false,
      "stateMutability":"view",
      "type":"function"
   },
   {
      "constant":true,
      "inputs":[

      ],
      "name":"getOracleAddress",
      "outputs":[
         {
            "name":"",
            "type":"address"
         }
      ],
      "payable":false,
      "stateMutability":"view",
      "type":"function"
   },
   {
      "constant":true,
      "inputs":[

      ],
      "name":"getDevFee",
      "outputs":[
         {
            "name":"",
            "type":"uint8"
         }
      ],
      "payable":false,
      "stateMutability":"view",
      "type":"function"
   },
   {
      "constant":true,
      "inputs":[
         {
            "name":"_bucketId",
            "type":"uint256"
         }
      ],
      "name":"getBucketThreshold",
      "outputs":[
         {
            "name":"",
            "type":"uint256"
         }
      ],
      "payable":false,
      "stateMutability":"view",
      "type":"function"
   },
   {
      "constant":true,
      "inputs":[

      ],
      "name":"getContractEthPrice",
      "outputs":[
         {
            "name":"",
            "type":"uint256"
         },
         {
            "name":"",
            "type":"uint256"
         }
      ],
      "payable":false,
      "stateMutability":"view",
      "type":"function"
   },
   {
      "constant":true,
      "inputs":[

      ],
      "name":"getUsdPriceNonce",
      "outputs":[
         {
            "name":"",
            "type":"uint256"
         }
      ],
      "payable":false,
      "stateMutability":"view",
      "type":"function"
   },
   {
      "constant":true,
      "inputs":[

      ],
      "name":"getFixedTokenAmount",
      "outputs":[
         {
            "name":"",
            "type":"uint256"
         }
      ],
      "payable":false,
      "stateMutability":"view",
      "type":"function"
   },
   {
      "constant":true,
      "inputs":[

      ],
      "name":"activeBuckets",
      "outputs":[
         {
            "name":"",
            "type":"uint256"
         }
      ],
      "payable":false,
      "stateMutability":"view",
      "type":"function"
   },
   {
      "constant":true,
      "inputs":[

      ],
      "name":"totalEthereumBalance",
      "outputs":[
         {
            "name":"",
            "type":"uint256"
         }
      ],
      "payable":false,
      "stateMutability":"view",
      "type":"function"
   },
   {
      "constant":true,
      "inputs":[

      ],
      "name":"getLastBalance",
      "outputs":[
         {
            "name":"",
            "type":"uint256"
         }
      ],
      "payable":false,
      "stateMutability":"view",
      "type":"function"
   },
   {
      "constant":true,
      "inputs":[

      ],
      "name":"getMaxDepositPercentage",
      "outputs":[
         {
            "name":"",
            "type":"uint8"
         }
      ],
      "payable":false,
      "stateMutability":"view",
      "type":"function"
   },
   {
      "constant":true,
      "inputs":[

      ],
      "name":"totalSupply",
      "outputs":[
         {
            "name":"",
            "type":"uint256"
         }
      ],
      "payable":false,
      "stateMutability":"view",
      "type":"function"
   },
   {
      "constant":true,
      "inputs":[

      ],
      "name":"myTokens",
      "outputs":[
         {
            "name":"",
            "type":"uint256"
         }
      ],
      "payable":false,
      "stateMutability":"view",
      "type":"function"
   },
   {
      "constant":true,
      "inputs":[

      ],
      "name":"myDividends",
      "outputs":[
         {
            "name":"",
            "type":"uint256"
         }
      ],
      "payable":false,
      "stateMutability":"view",
      "type":"function"
   },
   {
      "constant":true,
      "inputs":[
         {
            "name":"_bucketId",
            "type":"uint256"
         }
      ],
      "name":"bucketDividends",
      "outputs":[
         {
            "name":"",
            "type":"uint256"
         }
      ],
      "payable":false,
      "stateMutability":"view",
      "type":"function"
   },
   {
      "constant":true,
      "inputs":[
         {
            "name":"_memberAddress",
            "type":"address"
         }
      ],
      "name":"balanceOf",
      "outputs":[
         {
            "name":"",
            "type":"uint256"
         }
      ],
      "payable":false,
      "stateMutability":"view",
      "type":"function"
   },
   {
      "constant":true,
      "inputs":[
         {
            "name":"_bucketId",
            "type":"uint256"
         }
      ],
      "name":"balanceOfBucket",
      "outputs":[
         {
            "name":"",
            "type":"uint256"
         }
      ],
      "payable":false,
      "stateMutability":"view",
      "type":"function"
   },
   {
      "constant":true,
      "inputs":[
         {
            "name":"_memberAddress",
            "type":"address"
         }
      ],
      "name":"dividendsOf",
      "outputs":[
         {
            "name":"",
            "type":"uint256"
         }
      ],
      "payable":false,
      "stateMutability":"view",
      "type":"function"
   },
   {
      "constant":true,
      "inputs":[
         {
            "name":"_bucketId",
            "type":"uint256"
         }
      ],
      "name":"dividendsOfBucket",
      "outputs":[
         {
            "name":"",
            "type":"uint256"
         }
      ],
      "payable":false,
      "stateMutability":"view",
      "type":"function"
   },
   {
      "constant":true,
      "inputs":[

      ],
      "name":"sellPrice",
      "outputs":[
         {
            "name":"",
            "type":"uint256"
         }
      ],
      "payable":false,
      "stateMutability":"view",
      "type":"function"
   },
   {
      "constant":true,
      "inputs":[

      ],
      "name":"buyPrice",
      "outputs":[
         {
            "name":"",
            "type":"uint256"
         }
      ],
      "payable":false,
      "stateMutability":"view",
      "type":"function"
   },
   {
      "constant":true,
      "inputs":[
         {
            "name":"_ethereumToSpend",
            "type":"uint256"
         }
      ],
      "name":"calculateTokensReceived",
      "outputs":[
         {
            "name":"",
            "type":"uint256"
         }
      ],
      "payable":false,
      "stateMutability":"view",
      "type":"function"
   },
   {
      "constant":true,
      "inputs":[
         {
            "name":"_tokensToSell",
            "type":"uint256"
         }
      ],
      "name":"calculateEthereumReceived",
      "outputs":[
         {
            "name":"",
            "type":"uint256"
         }
      ],
      "payable":false,
      "stateMutability":"view",
      "type":"function"
   },
   {
      "constant":true,
      "inputs":[
         {
            "name":"_ethereum",
            "type":"uint256"
         }
      ],
      "name":"ethereumToTokens_",
      "outputs":[
         {
            "name":"",
            "type":"uint256"
         }
      ],
      "payable":false,
      "stateMutability":"view",
      "type":"function"
   },
   {
      "constant":true,
      "inputs":[
         {
            "name":"_tokens",
            "type":"uint256"
         }
      ],
      "name":"tokensToEthereum_",
      "outputs":[
         {
            "name":"",
            "type":"uint256"
         }
      ],
      "payable":false,
      "stateMutability":"view",
      "type":"function"
   }
]
